KLDKLD -  - 2324
<a>  </a>


<div id="cont"  style=" font-family:monospace; font-size: 10px;  ">
<p align="center"> <b>LA PIZZETTA</b></p>
    <p align="center">INVERSIONES GRAN PICCOLO S.L<br>
    AV FRANCISCO LA ROCHE 21-23<br>
    38001 SANTA CRUZ DE TENERIFE<br>
    TEL: 922288952 NIF: B76523042 <br><br> 
    N&uacute;m. Proforma: 172<br>
    Cliente: Yoscarrafael   <br>
    Atendido por: Alejandro Luis <br>
   9-1-2016 04:01 </p>  
   <p align="center">--------------------------------------</p>
    <table  style="width: 100%;  text-align: center;  ">
              </table>
   <p align="center">--------------------------------------</p>
  <p style="margin-left:50px;"> 
      <span >Subtotal: <b>140</b>&euro;</span><br>
     <span>Impuesto: 24&euro;</span><br>
    <span>Descuentos:56.08&euro;</span><br>
     <span>Servicios:116.4&euro;</span><br>

    <span align="center">Tipo de pagos:</span><br>
       

<h3 align="center">Total: &nbsp;&nbsp;&nbsp;&nbsp;&nbsp;&nbsp;&nbsp;&nbsp;&nbsp;&nbsp;&nbsp;&nbsp;&nbsp;&nbsp;&nbsp;&nbsp;&nbsp;&nbsp;280.4&euro;</h3> 
 <p align="center">!!Gracias por preferirnos!!</p>
 

</div>

<a>  </a>


<div id="cont"  style=" font-family:monospace; font-size: 10px;  ">
<p align="center"> <b>LA PIZZETTA</b></p>
    <p align="center">INVERSIONES GRAN PICCOLO S.L<br>
    AV FRANCISCO LA ROCHE 21-23<br>
    38001 SANTA CRUZ DE TENERIFE<br>
    TEL: 922288952 NIF: B76523042 <br><br> 
    N&uacute;m. Proforma: 172<br>
    Cliente: Yoscarrafael   <br>
    Atendido por: Alejandro Luis <br>
   9-1-2016 04:01 </p>  
   <p align="center">--------------------------------------</p>
    <table  style="width: 100%;  text-align: center;  ">
              </table>
   <p align="center">--------------------------------------</p>
  <p style="margin-left:50px;"> 
      <span >Subtotal: <b>140</b>&euro;</span><br>
     <span>Impuesto: 24&euro;</span><br>
    <span>Descuentos:56.08&euro;</span><br>
     <span>Servicios:116.4&euro;</span><br>

    <span align="center">Tipo de pagos:</span><br>
       

<h3 align="center">Total: &nbsp;&nbsp;&nbsp;&nbsp;&nbsp;&nbsp;&nbsp;&nbsp;&nbsp;&nbsp;&nbsp;&nbsp;&nbsp;&nbsp;&nbsp;&nbsp;&nbsp;&nbsp;280.4&euro;</h3> 
 <p align="center">!!Gracias por preferirnos!!</p>
 

</div>

<a>  </a>


<div id="cont"  style=" font-family:monospace; font-size: 10px;  ">
<p align="center"> <b>LA PIZZETTA</b></p>
    <p align="center">INVERSIONES GRAN PICCOLO S.L<br>
    AV FRANCISCO LA ROCHE 21-23<br>
    38001 SANTA CRUZ DE TENERIFE<br>
    TEL: 922288952 NIF: B76523042 <br><br> 
    N&uacute;m. Proforma: 172<br>
    Cliente: Yoscarrafael   <br>
    Atendido por: Alejandro Luis <br>
   9-1-2016 04:01 </p>  
   <p align="center">--------------------------------------</p>
    <table  style="width: 100%;  text-align: center;  ">
              </table>
   <p align="center">--------------------------------------</p>
  <p style="margin-left:50px;"> 
      <span >Subtotal: <b>140</b>&euro;</span><br>
     <span>Impuesto: 24&euro;</span><br>
    <span>Descuentos:56.08&euro;</span><br>
     <span>Servicios:116.4&euro;</span><br>

    <span align="center">Tipo de pagos:</span><br>
       

<h3 align="center">Total: &nbsp;&nbsp;&nbsp;&nbsp;&nbsp;&nbsp;&nbsp;&nbsp;&nbsp;&nbsp;&nbsp;&nbsp;&nbsp;&nbsp;&nbsp;&nbsp;&nbsp;&nbsp;280.4&euro;</h3> 
 <p align="center">!!Gracias por preferirnos!!</p>
 

</div>

<a>  </a>


<div id="cont"  style=" font-family:monospace; font-size: 10px;  ">
<p align="center"> <b>LA PIZZETTA</b></p>
    <p align="center">INVERSIONES GRAN PICCOLO S.L<br>
    AV FRANCISCO LA ROCHE 21-23<br>
    38001 SANTA CRUZ DE TENERIFE<br>
    TEL: 922288952 NIF: B76523042 <br><br> 
    N&uacute;m. Proforma: 172<br>
    Cliente: Yoscarrafael   <br>
    Atendido por: Alejandro Luis <br>
   9-1-2016 04:01 </p>  
   <p align="center">--------------------------------------</p>
    <table  style="width: 100%;  text-align: center;  ">
              </table>
   <p align="center">--------------------------------------</p>
  <p style="margin-left:50px;"> 
      <span >Subtotal: <b>140</b>&euro;</span><br>
     <span>Impuesto: 24&euro;</span><br>
    <span>Descuentos:56.08&euro;</span><br>
     <span>Servicios:116.4&euro;</span><br>

    <span align="center">Tipo de pagos:</span><br>
       

<h3 align="center">Total: &nbsp;&nbsp;&nbsp;&nbsp;&nbsp;&nbsp;&nbsp;&nbsp;&nbsp;&nbsp;&nbsp;&nbsp;&nbsp;&nbsp;&nbsp;&nbsp;&nbsp;&nbsp;280.4&euro;</h3> 
 <p align="center">!!Gracias por preferirnos!!</p>
 

</div>

