Two Pilots Demo Printer -  - 613
<center>
       
  
    <div style="width:350px; border:solid 1px;font-family:monospace;" >
        <span><h3>Ticket de cocina</h3></span>
        <span>Pedido</span>
        <span>Mesa:1</span>
        <span>-----------------------------------</span>
        <table  style="width: 100%;  text-align: center;  ">
            <tr>
             <th style=" width: 50%;">Producto:</td>
             <th style=" width: 50%;">Presentacion:</td>
             <th style=" width: 50%;">Cantidad:</td>
            </tr>
            <tr>
                <th>
                    
                </th>
            </tr>
                  <tr>         
            <th style=" width: 50%;">Cesar</th>
            <th style=" width: 50%;">Mediana</th>
            <th style=" width: 50%;"> x1 Nuev</th>
       </tr>
                <tr>         
            <th style=" width: 50%;">Hawaiana</th>
            <th style=" width: 50%;">Personal</th>
            <th style=" width: 50%;"> x1 Nuev</th>
       </tr>
            </table>
       <p>-----------------------------------</p>
        
    </div>
    
</center>